{
    "hall_entree": "Le hall d'entrée",
    "couloir_rez_chaussee": "Le Couloir du rez-de-chaussée",
    "cuisine": "La Cuisine",
    "atelier": "l'Atelier",
    "salle_manger": "La Salle à manger",
    "salon": "Le Salon",
    "chambre_parents": "La Chambre des parents",
    "chambre_invites": "La Chambre des invités",
    "chambre_joelle": "La Chambre de Joëlle",
    "haut_escalier": "En Haut des escaliers",
    "couloir_droit_etage": "Le Couloir droit à l'étage",
    "couloir_gauche_etage": "Le Couloir gauche à l'étage",
    "salle_etude": "La Salle d'étude"
}